EESchema Schematic File Version 2
LIBS:mysensors-battery-thermometer-hygrometer-rescue
LIBS:power
LIBS:device
LIBS:transistors
LIBS:conn
LIBS:linear
LIBS:regul
LIBS:74xx
LIBS:cmos4000
LIBS:adc-dac
LIBS:memory
LIBS:xilinx
LIBS:microcontrollers
LIBS:dsp
LIBS:microchip
LIBS:analog_switches
LIBS:motorola
LIBS:texas
LIBS:intel
LIBS:audio
LIBS:interface
LIBS:digital-audio
LIBS:philips
LIBS:display
LIBS:cypress
LIBS:siliconi
LIBS:opto
LIBS:atmel
LIBS:contrib
LIBS:valves
LIBS:my-batteries
LIBS:my-microcontrollers
LIBS:my-misc-modules
LIBS:my-regulators
LIBS:mysensors-battery-thermometer-hygrometer-cache
EELAYER 25 0
EELAYER END
$Descr A4 11693 8268
encoding utf-8
Sheet 1 1
Title ""
Date ""
Rev ""
Comp ""
Comment1 ""
Comment2 ""
Comment3 ""
Comment4 ""
$EndDescr
$Comp
L NRF24L01 U4
U 1 1 59907F10
P 7650 3300
F 0 "U4" H 7650 3300 60  0000 C CNN
F 1 "NRF24L01" H 7675 4000 60  0000 C CNN
F 2 "myModules:NRF24L01" H 7650 3300 60  0001 C CNN
F 3 "" H 7650 3300 60  0000 C CNN
	1    7650 3300
	-1   0    0    1   
$EndComp
$Comp
L GND #PWR01
U 1 1 59907F81
P 8200 4050
F 0 "#PWR01" H 8200 3800 50  0001 C CNN
F 1 "GND" H 8200 3900 50  0000 C CNN
F 2 "" H 8200 4050 50  0000 C CNN
F 3 "" H 8200 4050 50  0000 C CNN
	1    8200 4050
	1    0    0    -1  
$EndComp
$Comp
L GND #PWR02
U 1 1 59908427
P 3200 4850
F 0 "#PWR02" H 3200 4600 50  0001 C CNN
F 1 "GND" H 3200 4700 50  0000 C CNN
F 2 "" H 3200 4850 50  0000 C CNN
F 3 "" H 3200 4850 50  0000 C CNN
	1    3200 4850
	1    0    0    -1  
$EndComp
$Comp
L arduino_mini U1
U 1 1 5992F159
P 4750 4100
F 0 "U1" H 4775 4650 70  0000 C CNN
F 1 "arduino_mini" H 4775 4400 70  0000 C CNN
F 2 "myMicroControllers:Arduino-mini" H 4750 5200 60  0001 C CNN
F 3 "" H 5075 3600 60  0000 C CNN
	1    4750 4100
	-1   0    0    1   
$EndComp
Wire Wire Line
	4150 6250 5100 6250
Wire Wire Line
	6000 4100 5800 4100
Wire Wire Line
	6000 5150 6000 4100
Wire Wire Line
	3500 4250 3500 4400
Wire Wire Line
	3200 4250 3200 4850
Wire Wire Line
	3200 4700 3750 4700
Wire Wire Line
	3500 4400 3750 4400
Wire Wire Line
	6400 4250 5800 4250
Wire Wire Line
	6400 3400 6400 4250
Wire Wire Line
	7150 3400 6400 3400
Wire Wire Line
	8200 3400 8200 2750
Wire Wire Line
	8100 3400 8200 3400
Wire Wire Line
	7150 3550 6550 3550
Wire Wire Line
	8250 3550 8100 3550
Wire Wire Line
	6500 3350 5800 3350
Wire Wire Line
	6500 3350 6500 3700
Wire Wire Line
	6500 3700 7150 3700
Wire Wire Line
	6450 3500 5800 3500
Wire Wire Line
	6450 3050 6450 3500
Wire Wire Line
	8300 3050 6450 3050
Wire Wire Line
	8300 3700 8300 3050
Wire Wire Line
	8100 3700 8300 3700
Wire Wire Line
	7000 3850 7150 3850
Wire Wire Line
	8200 3850 8200 4050
Wire Wire Line
	8100 3850 8200 3850
Wire Wire Line
	8200 2750 3600 2750
Wire Wire Line
	3600 2750 3600 3500
Wire Wire Line
	3600 3500 3750 3500
Wire Wire Line
	6550 3550 6550 2700
Wire Wire Line
	6550 2700 3550 2700
Wire Wire Line
	3550 2700 3550 3350
Wire Wire Line
	3550 3350 3750 3350
Wire Wire Line
	8250 3550 8250 2650
Wire Wire Line
	8250 2650 3500 2650
Wire Wire Line
	3500 2650 3500 3650
Wire Wire Line
	3500 3650 3750 3650
$Comp
L LM2931AZ-3.3/5.0 U2
U 1 1 5AB60665
P 4400 5800
F 0 "U2" H 4400 6100 50  0000 C CNN
F 1 "LM2936-3.3" H 4400 6000 50  0000 C CNN
F 2 "TO_SOT_Packages_THT:TO-92_Inline_Wide" H 4400 5900 50  0001 C CIN
F 3 "" H 4400 5800 50  0000 C CNN
	1    4400 5800
	1    0    0    -1  
$EndComp
Wire Wire Line
	4400 6050 4400 6250
$Comp
L CP C1
U 1 1 5AB60BD4
P 5100 6000
F 0 "C1" H 5125 6100 50  0000 L CNN
F 1 "10µF 6.3V" H 5125 5900 50  0000 L CNN
F 2 "Capacitors_ThroughHole:C_Radial_D5_L11_P2" H 5138 5850 50  0001 C CNN
F 3 "" H 5100 6000 50  0000 C CNN
	1    5100 6000
	1    0    0    -1  
$EndComp
$Comp
L GND #PWR03
U 1 1 5AB60C12
P 5100 6350
F 0 "#PWR03" H 5100 6100 50  0001 C CNN
F 1 "GND" H 5100 6200 50  0000 C CNN
F 2 "" H 5100 6350 50  0000 C CNN
F 3 "" H 5100 6350 50  0000 C CNN
	1    5100 6350
	1    0    0    -1  
$EndComp
Wire Wire Line
	5100 6150 5100 6350
Wire Wire Line
	5100 5650 5100 5850
Connection ~ 5100 5750
Connection ~ 4400 6250
Connection ~ 5100 6250
$Comp
L +3.3V #PWR04
U 1 1 5AB63038
P 3500 4250
F 0 "#PWR04" H 3500 4100 50  0001 C CNN
F 1 "+3.3V" H 3500 4390 50  0000 C CNN
F 2 "" H 3500 4250 50  0000 C CNN
F 3 "" H 3500 4250 50  0000 C CNN
	1    3500 4250
	1    0    0    -1  
$EndComp
$Comp
L +3.3V #PWR05
U 1 1 5AB630B8
P 5100 5650
F 0 "#PWR05" H 5100 5500 50  0001 C CNN
F 1 "+3.3V" H 5100 5790 50  0000 C CNN
F 2 "" H 5100 5650 50  0000 C CNN
F 3 "" H 5100 5650 50  0000 C CNN
	1    5100 5650
	1    0    0    -1  
$EndComp
Wire Wire Line
	4800 5750 5100 5750
$Comp
L +3.3V #PWR06
U 1 1 5AB6318C
P 7000 3300
F 0 "#PWR06" H 7000 3150 50  0001 C CNN
F 1 "+3.3V" H 7000 3440 50  0000 C CNN
F 2 "" H 7000 3300 50  0000 C CNN
F 3 "" H 7000 3300 50  0000 C CNN
	1    7000 3300
	1    0    0    -1  
$EndComp
Wire Wire Line
	7000 3300 7000 3850
$Comp
L Jumper_NC_Small JP1
U 1 1 5AB65902
P 4050 6250
F 0 "JP1" H 4050 6330 50  0000 C CNN
F 1 "Measure" H 4060 6190 50  0001 C CNN
F 2 "Pin_Headers:Pin_Header_Straight_1x02" H 4050 6250 50  0001 C CNN
F 3 "" H 4050 6250 50  0000 C CNN
	1    4050 6250
	1    0    0    -1  
$EndComp
$Comp
L R R2
U 1 1 5AB65A1F
P 3200 3500
F 0 "R2" V 3280 3500 50  0000 C CNN
F 1 "1M" V 3200 3500 50  0000 C CNN
F 2 "Resistors_ThroughHole:Resistor_Horizontal_RM10mm" V 3130 3500 50  0001 C CNN
F 3 "" H 3200 3500 50  0000 C CNN
	1    3200 3500
	-1   0    0    1   
$EndComp
$Comp
L R R3
U 1 1 5AB65A96
P 3200 4100
F 0 "R3" V 3280 4100 50  0000 C CNN
F 1 "330K" V 3200 4100 50  0000 C CNN
F 2 "Resistors_ThroughHole:Resistor_Horizontal_RM10mm" V 3130 4100 50  0001 C CNN
F 3 "" H 3200 4100 50  0000 C CNN
	1    3200 4100
	-1   0    0    1   
$EndComp
Wire Wire Line
	3200 3650 3200 3950
Wire Wire Line
	3200 3800 3750 3800
Connection ~ 3200 3800
$Comp
L +BATT #PWR07
U 1 1 5AB65BD8
P 3200 3250
F 0 "#PWR07" H 3200 3100 50  0001 C CNN
F 1 "+BATT" H 3200 3390 50  0000 C CNN
F 2 "" H 3200 3250 50  0000 C CNN
F 3 "" H 3200 3250 50  0000 C CNN
	1    3200 3250
	1    0    0    -1  
$EndComp
Wire Wire Line
	3200 3250 3200 3350
Connection ~ 3200 4700
$Comp
L Battery BT1
U 1 1 5B65117B
P 3550 6100
F 0 "BT1" V 3400 6050 50  0000 L CNN
F 1 "16340 LI-ION" V 3750 5900 50  0000 L CNN
F 2 "myBatteries:16340" V 3550 6140 50  0001 C CNN
F 3 "" V 3550 6140 50  0000 C CNN
	1    3550 6100
	0    1    1    0   
$EndComp
Wire Wire Line
	3700 5650 3700 5750
$Comp
L +BATT #PWR08
U 1 1 5B651183
P 3700 5650
F 0 "#PWR08" H 3700 5500 50  0001 C CNN
F 1 "+BATT" H 3700 5790 50  0000 C CNN
F 2 "" H 3700 5650 50  0000 C CNN
F 3 "" H 3700 5650 50  0000 C CNN
	1    3700 5650
	1    0    0    -1  
$EndComp
Wire Wire Line
	3200 6250 3950 6250
Wire Wire Line
	3200 5750 4000 5750
$Comp
L TP4056-MODULE U3
U 1 1 5B65118B
P 2650 6000
F 0 "U3" H 2550 5900 60  0000 C CNN
F 1 "TP4056-MODULE" H 2500 6000 60  0000 C CNN
F 2 "myModules:TP4056-CHARGER" H 2650 6000 60  0001 C CNN
F 3 "" H 2650 6000 60  0000 C CNN
	1    2650 6000
	1    0    0    -1  
$EndComp
Connection ~ 3700 5750
Wire Wire Line
	3200 6100 3400 6100
Wire Wire Line
	3700 6100 3800 6100
Wire Wire Line
	3800 6100 3800 5900
Wire Wire Line
	3800 5900 3200 5900
$Comp
L SHT31D U5
U 1 1 5C3335FA
P 2650 2250
F 0 "U5" H 2250 1950 60  0000 C CNN
F 1 "SHT31D" H 2750 1950 60  0000 C CNN
F 2 "myModules:SHT31D" H 3150 1650 60  0001 C CNN
F 3 "" H 3150 1650 60  0000 C CNN
	1    2650 2250
	-1   0    0    1   
$EndComp
Wire Wire Line
	3300 2100 4850 2100
Wire Wire Line
	4850 2100 4850 2800
Wire Wire Line
	3300 2200 5000 2200
Wire Wire Line
	5000 2200 5000 2800
$Comp
L GND #PWR09
U 1 1 5C333950
P 3500 2400
F 0 "#PWR09" H 3500 2150 50  0001 C CNN
F 1 "GND" H 3500 2250 50  0000 C CNN
F 2 "" H 3500 2400 50  0000 C CNN
F 3 "" H 3500 2400 50  0000 C CNN
	1    3500 2400
	1    0    0    -1  
$EndComp
Wire Wire Line
	3300 2300 3500 2300
Wire Wire Line
	3500 2300 3500 2400
$Comp
L +3.3V #PWR010
U 1 1 5C3339C2
P 3400 2000
F 0 "#PWR010" H 3400 1850 50  0001 C CNN
F 1 "+3.3V" H 3400 2140 50  0000 C CNN
F 2 "" H 3400 2000 50  0000 C CNN
F 3 "" H 3400 2000 50  0000 C CNN
	1    3400 2000
	1    0    0    -1  
$EndComp
Wire Wire Line
	3400 2000 3400 2400
Wire Wire Line
	3400 2400 3300 2400
$EndSCHEMATC
