(export (version D)
  (design
    (source /home/riton/kicad/domotics/mysensors-battery-thermometer-hygrometer/case-Z123/mysensors-battery-thermometer-hygrometer.sch)
    (date "lun. 07 janv. 2019 12:42:22 CET")
    (tool "Eeschema 4.0.2+dfsg1-stable")
    (sheet (number 1) (name /) (tstamps /)
      (title_block
        (title)
        (company)
        (rev)
        (date)
        (source mysensors-battery-thermometer-hygrometer.sch)
        (comment (number 1) (value ""))
        (comment (number 2) (value ""))
        (comment (number 3) (value ""))
        (comment (number 4) (value "")))))
  (components
    (comp (ref U4)
      (value NRF24L01)
      (footprint myModules:NRF24L01)
      (libsource (lib my-misc-modules) (part NRF24L01))
      (sheetpath (names /) (tstamps /))
      (tstamp 59907F10))
    (comp (ref U1)
      (value arduino_mini)
      (footprint myMicroControllers:Arduino-mini)
      (libsource (lib my-microcontrollers) (part arduino_mini))
      (sheetpath (names /) (tstamps /))
      (tstamp 5992F159))
    (comp (ref U2)
      (value LM2936-3.3)
      (footprint TO_SOT_Packages_THT:TO-92_Inline_Wide)
      (libsource (lib regul) (part LM2931AZ-3.3/5.0))
      (sheetpath (names /) (tstamps /))
      (tstamp 5AB60665))
    (comp (ref C1)
      (value "10µF 6.3V")
      (footprint Capacitors_ThroughHole:C_Radial_D5_L11_P2)
      (libsource (lib device) (part CP))
      (sheetpath (names /) (tstamps /))
      (tstamp 5AB60BD4))
    (comp (ref JP1)
      (value Measure)
      (footprint Pin_Headers:Pin_Header_Straight_1x02)
      (libsource (lib device) (part Jumper_NC_Small))
      (sheetpath (names /) (tstamps /))
      (tstamp 5AB65902))
    (comp (ref R2)
      (value 1M)
      (footprint Resistors_ThroughHole:Resistor_Horizontal_RM10mm)
      (libsource (lib device) (part R))
      (sheetpath (names /) (tstamps /))
      (tstamp 5AB65A1F))
    (comp (ref R3)
      (value 330K)
      (footprint Resistors_ThroughHole:Resistor_Horizontal_RM10mm)
      (libsource (lib device) (part R))
      (sheetpath (names /) (tstamps /))
      (tstamp 5AB65A96))
    (comp (ref BT1)
      (value "16340 LI-ION")
      (footprint myBatteries:16340)
      (libsource (lib device) (part Battery))
      (sheetpath (names /) (tstamps /))
      (tstamp 5B65117B))
    (comp (ref U3)
      (value TP4056-MODULE)
      (footprint myModules:TP4056-CHARGER)
      (libsource (lib my-batteries) (part TP4056-MODULE))
      (sheetpath (names /) (tstamps /))
      (tstamp 5B65118B))
    (comp (ref U5)
      (value SHT31D)
      (footprint myModules:SHT31D)
      (libsource (lib my-misc-modules) (part SHT31D))
      (sheetpath (names /) (tstamps /))
      (tstamp 5C3335FA)))
  (libparts
    (libpart (lib device) (part Battery)
      (fields
        (field (name Reference) BT)
        (field (name Value) Battery))
      (pins
        (pin (num 1) (name ~) (type passive))
        (pin (num 2) (name ~) (type passive))))
    (libpart (lib device) (part CP)
      (description "Polarised capacitor")
      (footprints
        (fp CP*)
        (fp Elko*)
        (fp TantalC*)
        (fp C*elec)
        (fp c_elec*)
        (fp SMD*_Pol))
      (fields
        (field (name Reference) C)
        (field (name Value) CP))
      (pins
        (pin (num 1) (name ~) (type passive))
        (pin (num 2) (name ~) (type passive))))
    (libpart (lib device) (part Jumper_NC_Small)
      (description "Jumper normally close")
      (fields
        (field (name Reference) JP)
        (field (name Value) Jumper_NC_Small))
      (pins
        (pin (num 1) (name 1) (type passive))
        (pin (num 2) (name 2) (type passive))))
    (libpart (lib regul) (part LM2931AZ-3.3/5.0)
      (aliases
        (alias LM2931Z-3.3/5.0))
      (description "LM2931, 100mA Low drop-out regulator, Fixed Output 3.3V, 5V")
      (docs http://www.ti.com/lit/ds/symlink/lm2931-n.pdf)
      (footprints
        (fp TO92-123))
      (fields
        (field (name Reference) U)
        (field (name Value) LM2931AZ-3.3/5.0)
        (field (name Footprint) TO92-123))
      (pins
        (pin (num 1) (name VO) (type power_out))
        (pin (num 2) (name GND) (type power_in))
        (pin (num 3) (name VI) (type power_in))))
    (libpart (lib my-misc-modules) (part NRF24L01)
      (description "NRF24L01 Nordic Semiconductor")
      (fields
        (field (name Reference) U)
        (field (name Value) NRF24L01))
      (pins
        (pin (num 1) (name GND) (type input))
        (pin (num 2) (name VCC) (type input))
        (pin (num 3) (name CE) (type input))
        (pin (num 4) (name CSN) (type input))
        (pin (num 5) (name SCK) (type input))
        (pin (num 6) (name MOSI) (type input))
        (pin (num 7) (name MISO) (type input))
        (pin (num 8) (name IRQ) (type input))))
    (libpart (lib device) (part R)
      (description Resistor)
      (footprints
        (fp R_*)
        (fp Resistor_*))
      (fields
        (field (name Reference) R)
        (field (name Value) R))
      (pins
        (pin (num 1) (name ~) (type passive))
        (pin (num 2) (name ~) (type passive))))
    (libpart (lib my-misc-modules) (part SHT31D)
      (description "A temperature & humidity sensor")
      (fields
        (field (name Reference) U)
        (field (name Value) SHT31D))
      (pins
        (pin (num 1) (name VCC) (type power_in))
        (pin (num 2) (name GND) (type power_in))
        (pin (num 3) (name SCL) (type power_in))
        (pin (num 4) (name SDA) (type power_in))))
    (libpart (lib my-batteries) (part TP4056-MODULE)
      (description "LITHIUM-ION battery charger module board for 1S")
      (fields
        (field (name Reference) U)
        (field (name Value) TP4056-MODULE))
      (pins
        (pin (num 1) (name B+) (type input))
        (pin (num 2) (name B-) (type input))
        (pin (num 3) (name OUT+) (type input))
        (pin (num 4) (name OUT-) (type input))
        (pin (num 5) (name +) (type input))
        (pin (num 6) (name -) (type input))))
    (libpart (lib my-microcontrollers) (part arduino_mini)
      (description "ARDUINO MINI ATMEGA328P")
      (fields
        (field (name Reference) U)
        (field (name Value) arduino_mini)
        (field (name Footprint) DIL24))
      (pins
        (pin (num 1) (name "(SS)D10") (type BiDi))
        (pin (num 2) (name "(MOSI)D11") (type BiDi))
        (pin (num 3) (name "(MISO)D12") (type BiDi))
        (pin (num 4) (name "(SCK)D13") (type BiDi))
        (pin (num 5) (name A0) (type BiDi))
        (pin (num 6) (name A1) (type BiDi))
        (pin (num 7) (name A2) (type BiDi))
        (pin (num 8) (name A3) (type BiDi))
        (pin (num 9) (name 5V) (type power_out))
        (pin (num 10) (name RST) (type input))
        (pin (num 11) (name GND) (type power_in))
        (pin (num 12) (name RAW) (type power_in))
        (pin (num 13) (name "(TX)D0") (type BiDi))
        (pin (num 14) (name "(RX)D1") (type BiDi))
        (pin (num 15) (name RST) (type input))
        (pin (num 16) (name GND) (type power_in))
        (pin (num 17) (name D2) (type BiDi))
        (pin (num 18) (name D3) (type BiDi))
        (pin (num 19) (name D4) (type BiDi))
        (pin (num 20) (name D5) (type BiDi))
        (pin (num 21) (name D6) (type BiDi))
        (pin (num 22) (name D7) (type BiDi))
        (pin (num 23) (name D8) (type BiDi))
        (pin (num 24) (name D9) (type BiDi))
        (pin (num 25) (name A6) (type BiDi))
        (pin (num 26) (name A7) (type BiDi))
        (pin (num 27) (name "(SDA)A4") (type BiDi))
        (pin (num 28) (name "(SCL)A5") (type BiDi)))))
  (libraries
    (library (logical device)
      (uri /usr/share/kicad/library/device.lib))
    (library (logical regul)
      (uri /usr/share/kicad/library/regul.lib))
    (library (logical my-misc-modules)
      (uri /home/riton/kicad/library/my-misc-modules.lib))
    (library (logical my-batteries)
      (uri /home/riton/kicad/library/my-batteries.lib))
    (library (logical my-microcontrollers)
      (uri /home/riton/kicad/library/my-microcontrollers.lib)))
  (nets
    (net (code 1) (name +3V3)
      (node (ref C1) (pin 1))
      (node (ref U5) (pin 1))
      (node (ref U1) (pin 9))
      (node (ref U2) (pin 1))
      (node (ref U4) (pin 2)))
    (net (code 2) (name "Net-(JP1-Pad1)")
      (node (ref U3) (pin 4))
      (node (ref JP1) (pin 1)))
    (net (code 3) (name "Net-(R2-Pad1)")
      (node (ref R2) (pin 1))
      (node (ref U1) (pin 5))
      (node (ref R3) (pin 2)))
    (net (code 4) (name +BATT)
      (node (ref U2) (pin 3))
      (node (ref R2) (pin 2))
      (node (ref U3) (pin 3)))
    (net (code 5) (name GND)
      (node (ref U1) (pin 11))
      (node (ref U4) (pin 1))
      (node (ref U2) (pin 2))
      (node (ref C1) (pin 2))
      (node (ref U5) (pin 2))
      (node (ref R3) (pin 1))
      (node (ref JP1) (pin 2)))
    (net (code 6) (name "Net-(U1-Pad28)")
      (node (ref U1) (pin 28))
      (node (ref U5) (pin 3)))
    (net (code 7) (name "Net-(U1-Pad27)")
      (node (ref U5) (pin 4))
      (node (ref U1) (pin 27)))
    (net (code 8) (name "Net-(BT1-Pad1)")
      (node (ref BT1) (pin 1))
      (node (ref U3) (pin 1)))
    (net (code 9) (name "Net-(BT1-Pad2)")
      (node (ref U3) (pin 2))
      (node (ref BT1) (pin 2)))
    (net (code 10) (name "Net-(U3-Pad5)")
      (node (ref U3) (pin 5)))
    (net (code 11) (name "Net-(U3-Pad6)")
      (node (ref U3) (pin 6)))
    (net (code 12) (name "Net-(U1-Pad13)")
      (node (ref U1) (pin 13)))
    (net (code 13) (name "Net-(U1-Pad6)")
      (node (ref U1) (pin 6)))
    (net (code 14) (name "Net-(U1-Pad7)")
      (node (ref U1) (pin 7)))
    (net (code 15) (name "Net-(U1-Pad8)")
      (node (ref U1) (pin 8)))
    (net (code 16) (name "Net-(U1-Pad10)")
      (node (ref U1) (pin 10)))
    (net (code 17) (name "Net-(U1-Pad20)")
      (node (ref U1) (pin 20)))
    (net (code 18) (name "Net-(U1-Pad21)")
      (node (ref U1) (pin 21)))
    (net (code 19) (name "Net-(U1-Pad22)")
      (node (ref U4) (pin 3))
      (node (ref U1) (pin 22)))
    (net (code 20) (name "Net-(U1-Pad14)")
      (node (ref U1) (pin 14)))
    (net (code 21) (name "Net-(U1-Pad24)")
      (node (ref U1) (pin 24)))
    (net (code 22) (name "Net-(U1-Pad15)")
      (node (ref U1) (pin 15)))
    (net (code 23) (name "Net-(U1-Pad25)")
      (node (ref U1) (pin 25)))
    (net (code 24) (name "Net-(U1-Pad16)")
      (node (ref U1) (pin 16)))
    (net (code 25) (name "Net-(U1-Pad26)")
      (node (ref U1) (pin 26)))
    (net (code 26) (name "Net-(U1-Pad17)")
      (node (ref U1) (pin 17))
      (node (ref U4) (pin 8)))
    (net (code 27) (name "Net-(U1-Pad4)")
      (node (ref U1) (pin 4))
      (node (ref U4) (pin 5)))
    (net (code 28) (name "Net-(U1-Pad12)")
      (node (ref U1) (pin 12)))
    (net (code 29) (name "Net-(U1-Pad1)")
      (node (ref U1) (pin 1)))
    (net (code 30) (name "Net-(U1-Pad23)")
      (node (ref U4) (pin 4))
      (node (ref U1) (pin 23)))
    (net (code 31) (name "Net-(U1-Pad3)")
      (node (ref U1) (pin 3))
      (node (ref U4) (pin 7)))
    (net (code 32) (name "Net-(U1-Pad2)")
      (node (ref U4) (pin 6))
      (node (ref U1) (pin 2)))
    (net (code 33) (name "Net-(U1-Pad18)")
      (node (ref U1) (pin 18)))
    (net (code 34) (name "Net-(U1-Pad19)")
      (node (ref U1) (pin 19)))))